<?xml version="1.0" standalone="no"?>
<!DOCTYPE svg PUBLIC "-//W3C//DTD SVG 1.1//EN" "http://www.w3.org/Graphics/SVG/1.1/DTD/svg11.dtd" >
<svg xmlns="http://www.w3.org/2000/svg">
<metadata>Generated by IcoMoon</metadata>
<defs>
<font id="icomoon" horiz-adv-x="1024">
<font-face units-per-em="1024" ascent="960" descent="-64" />
<missing-glyph horiz-adv-x="1024" />
<glyph unicode="&#x20;" horiz-adv-x="512" d="" />
<glyph unicode="&#xe907;" glyph-name="shopping-bag" d="M976.817-38.496l-76.513 712.847c-1.275 11.477-11.477 20.403-22.954 20.403h-141.549v43.357c0 122.421-99.467 221.888-221.888 221.888s-221.888-99.467-221.888-221.888v-43.357h-145.375c-11.477 0-21.679-8.927-22.954-20.403l-76.513-712.847c-1.275-6.376 1.275-12.752 5.101-17.853s10.202-7.651 16.578-7.651h886.276c6.376 0 12.752 2.55 16.578 7.651s6.376 11.477 5.101 17.853zM712.847 565.958c11.477 0 20.403-8.927 20.403-20.403s-8.927-20.403-20.403-20.403c-11.477 0-20.403 8.927-20.403 20.403s8.927 20.403 20.403 20.403zM337.933 738.112c0 96.917 79.064 175.98 175.98 175.98s175.98-79.064 175.98-175.98v-43.357h-351.96v43.357zM314.979 565.958c11.477 0 20.403-8.927 20.403-20.403s-8.927-20.403-20.403-20.403c-11.477 0-20.403 8.927-20.403 20.403s8.927 20.403 20.403 20.403zM95.641-16.817l71.412 666.939h124.971v-42.082c-25.504-8.927-43.357-33.156-43.357-61.21 0-35.706 29.33-65.036 65.036-65.036s65.036 29.33 65.036 65.036c0 28.055-17.853 52.284-43.357 61.21v42.082h351.96v-42.082c-25.504-8.927-43.357-33.156-43.357-61.21 0-35.706 29.33-65.036 65.036-65.036s65.036 29.33 65.036 65.036c0 28.055-17.853 52.284-43.357 61.21v42.082h130.072l71.412-666.939h-836.543z" />
</font></defs></svg>